…
# Task2 exploring the chosen dataset

Let’s dive in the *vancouver_trees* data set to see what is interesting
to study!

-   Exercise 2

``` r
vancouver_trees%>%
  mutate(age = difftime(Sys.Date(), date_planted, units = "days")) ## adding a column with the age of each trees (in days)
```

    ## # A tibble: 146,611 × 21
    ##    tree_id civic_number std_street    genus_name species_name cultivar_name  
    ##      <dbl>        <dbl> <chr>         <chr>      <chr>        <chr>          
    ##  1  149556          494 W 58TH AV     ULMUS      AMERICANA    BRANDON        
    ##  2  149563          450 W 58TH AV     ZELKOVA    SERRATA      <NA>           
    ##  3  149579         4994 WINDSOR ST    STYRAX     JAPONICA     <NA>           
    ##  4  149590          858 E 39TH AV     FRAXINUS   AMERICANA    AUTUMN APPLAUSE
    ##  5  149604         5032 WINDSOR ST    ACER       CAMPESTRE    <NA>           
    ##  6  149616          585 W 61ST AV     PYRUS      CALLERYANA   CHANTICLEER    
    ##  7  149617         4909 SHERBROOKE ST ACER       PLATANOIDES  COLUMNARE      
    ##  8  149618         4925 SHERBROOKE ST ACER       PLATANOIDES  COLUMNARE      
    ##  9  149619         4969 SHERBROOKE ST ACER       PLATANOIDES  COLUMNARE      
    ## 10  149625          720 E 39TH AV     FRAXINUS   AMERICANA    AUTUMN APPLAUSE
    ## # … with 146,601 more rows, and 15 more variables: common_name <chr>,
    ## #   assigned <chr>, root_barrier <chr>, plant_area <chr>,
    ## #   on_street_block <dbl>, on_street <chr>, neighbourhood_name <chr>,
    ## #   street_side_name <chr>, height_range_id <dbl>, diameter <dbl>, curb <chr>,
    ## #   date_planted <date>, longitude <dbl>, latitude <dbl>, age <drtn>
…
I chose this exercise because I found it interesting to determine the
number of trees per neighborhood, it’s a relation that can be useful in
the future. I could have use the streets or the blocks, but for me it
makes more sense to look at the neighborhoods because there is certainly
an inner tree politic per neighborhood, and not per street

-   Exercise 5

``` r
vancouver_trees%>%
  mutate(year_planted = format(date_planted, "%Y")) %>% #creating a new column with just the year when each tree was planted
  filter(year_planted<1996) #filtering to just take the trees planted before 1996
```

    ## # A tibble: 10,702 × 21
    ##    tree_id civic_number std_street    genus_name species_name cultivar_name  
    ##      <dbl>        <dbl> <chr>         <chr>      <chr>        <chr>          
    ##  1  149579         4994 WINDSOR ST    STYRAX     JAPONICA     <NA>           
    ##  2  149604         5032 WINDSOR ST    ACER       CAMPESTRE    <NA>           
    ##  3  149617         4909 SHERBROOKE ST ACER       PLATANOIDES  COLUMNARE      
    ##  4  149618         4925 SHERBROOKE ST ACER       PLATANOIDES  COLUMNARE      
    ##  5  149619         4969 SHERBROOKE ST ACER       PLATANOIDES  COLUMNARE      
    ##  6  149625          720 E 39TH AV     FRAXINUS   AMERICANA    AUTUMN APPLAUSE
    ##  7  149626          736 E 39TH AV     TILIA      EUCHLORA   X <NA>           
    ##  8  149636          812 E 39TH AV     TILIA      EUCHLORA   X <NA>           
    ##  9  149640         6968 SELKIRK ST    ACER       PLATANOIDES  COLUMNARE      
    ## 10  149646          505 E 16TH AV     HIBISCUS   SYRIACA      <NA>           
    ## # … with 10,692 more rows, and 15 more variables: common_name <chr>,
    ## #   assigned <chr>, root_barrier <chr>, plant_area <chr>,
    ## #   on_street_block <dbl>, on_street <chr>, neighbourhood_name <chr>,
    ## #   street_side_name <chr>, height_range_id <dbl>, diameter <dbl>, curb <chr>,
    ## #   date_planted <date>, longitude <dbl>, latitude <dbl>, year_planted <chr>
…
