…
``` r
vancouver_trees_yearcat <- vancouver_trees_year %>%
  mutate(plantation_period = case_when(year_planted<1995 ~ "1989-1994", #creating categorical variable indicating the period of plantation of the tree
                                       year_planted<2000 ~ "1995-1999",
                                       year_planted<2005 ~ "1999-2004",
                                       year_planted<2010 ~ "2005-2009",
                                       year_planted<2015 ~ "2010-2015",
                                       TRUE ~ "2016-2019",))
print(vancouver_trees_yearcat)
```

    ## # A tibble: 146,611 × 22
    ##    tree_id civic_number std_street    genus_name species_name cultivar_name  
    ##      <dbl>        <dbl> <chr>         <chr>      <chr>        <chr>          
    ##  1  149556          494 W 58TH AV     ULMUS      AMERICANA    BRANDON        
    ##  2  149563          450 W 58TH AV     ZELKOVA    SERRATA      <NA>           
    ##  3  149579         4994 WINDSOR ST    STYRAX     JAPONICA     <NA>           
    ##  4  149590          858 E 39TH AV     FRAXINUS   AMERICANA    AUTUMN APPLAUSE
    ##  5  149604         5032 WINDSOR ST    ACER       CAMPESTRE    <NA>           
    ##  6  149616          585 W 61ST AV     PYRUS      CALLERYANA   CHANTICLEER    
    ##  7  149617         4909 SHERBROOKE ST ACER       PLATANOIDES  COLUMNARE      
    ##  8  149618         4925 SHERBROOKE ST ACER       PLATANOIDES  COLUMNARE      
    ##  9  149619         4969 SHERBROOKE ST ACER       PLATANOIDES  COLUMNARE      
    ## 10  149625          720 E 39TH AV     FRAXINUS   AMERICANA    AUTUMN APPLAUSE
    ## # … with 146,601 more rows, and 16 more variables: common_name <chr>,
    ## #   assigned <chr>, root_barrier <chr>, plant_area <chr>,
    ## #   on_street_block <dbl>, on_street <chr>, neighbourhood_name <chr>,
    ## #   street_side_name <chr>, height_range_id <dbl>, diameter <dbl>, curb <chr>,
    ## #   date_planted <date>, longitude <dbl>, latitude <dbl>, year_planted <chr>,
    ## #   plantation_period <chr>
…
``` r
vancouver_trees_neighborhood_genus <- vancouver_trees %>%
  group_by(neighbourhood_name, genus_name) %>%
  summarize(n = n(), min_id = min(tree_id), max_id = max(tree_id)) # I want to store the number of trees for each neighborhood
```

    ## `summarise()` has grouped output by 'neighbourhood_name'. You can override using the `.groups` argument.

``` r
print(vancouver_trees_neighborhood_genus)
```

    ## # A tibble: 1,303 × 5
    ## # Groups:   neighbourhood_name [22]
    ##    neighbourhood_name genus_name      n min_id max_id
    ##    <chr>              <chr>       <int>  <dbl>  <dbl>
    ##  1 ARBUTUS-RIDGE      ABIES          18   7235 225364
    ##  2 ARBUTUS-RIDGE      ACER          867    967 265963
    ##  3 ARBUTUS-RIDGE      AESCULUS      134   2919 259849
    ##  4 ARBUTUS-RIDGE      AMELANCHIER    19  54679 264792
    ##  5 ARBUTUS-RIDGE      BETULA         77  17532 246760
    ##  6 ARBUTUS-RIDGE      CALOCEDRUS      1 204233 204233
    ##  7 ARBUTUS-RIDGE      CARPINUS      167    966 259551
    ##  8 ARBUTUS-RIDGE      CATALPA         5 154239 178612
    ##  9 ARBUTUS-RIDGE      CEDRUS         11  33674 258796
    ## 10 ARBUTUS-RIDGE      CELTIS          4 228229 228239
    ## # … with 1,293 more rows
…
*Question 3*: Is there a trend in the type of trees that are planted
over the years?

First, let’s look at the number of each trees’ genus per year (**#2**)

``` r
vancouver_trees_year%>%
  group_by(genus_name, year_planted)%>% #grouping by the genus
  summarise(n = n()) #counting the number of observation
```

    ## `summarise()` has grouped output by 'genus_name'. You can override using the `.groups` argument.

    ## # A tibble: 1,146 × 3
    ## # Groups:   genus_name [97]
    ##    genus_name year_planted     n
    ##    <chr>      <chr>        <int>
    ##  1 ABIES      1997             1
    ##  2 ABIES      1998             5
    ##  3 ABIES      1999             9
    ##  4 ABIES      2003            27
    ##  5 ABIES      2004             3
    ##  6 ABIES      2006             1
    ##  7 ABIES      2008             1
    ##  8 ABIES      2009             2
    ##  9 ABIES      2010            10
    ## 10 ABIES      2012             1
    ## # … with 1,136 more rows
…
    ## `summarise()` has grouped output by 'genus_name'. You can override using the `.groups` argument.

    ## # A tibble: 26 × 3
    ## # Groups:   genus_name [4]
    ##    genus_name year_planted     n
    ##    <chr>      <chr>        <int>
    ##  1 ABIES      1997             1
    ##  2 ABIES      1998             5
    ##  3 ABIES      1999             9
    ##  4 ABIES      2003            27
    ##  5 ABIES      2004             3
    ##  6 ABIES      2006             1
    ##  7 ABIES      2008             1
    ##  8 ABIES      2009             2
    ##  9 ABIES      2010            10
    ## 10 ABIES      2012             1
    ## # … with 16 more rows
…
Let’s deep into the diameter variable, by grouping the data by the genus
of trees (**#1**) and looking at the mean, range, median and standard
deviation

``` r
vancouver_trees_genus_statdiameter <- vancouver_trees%>%
  group_by(genus_name)%>% #grouping by the genus
  summarise(mean_diameter = mean(diameter), min_diameter = min(diameter), max_diameter = max(diameter), median_diameter = median(diameter), sd_diameter = sd(diameter)) #calculating statistical summaries
print(vancouver_trees_genus_statdiameter)
```

    ## # A tibble: 97 × 6
    ##    genus_name  mean_diameter min_diameter max_diameter median_diameter
    ##    <chr>               <dbl>        <dbl>        <dbl>           <dbl>
    ##  1 ABIES               12.9             1         42.5           12   
    ##  2 ACER                10.6             0        317              8   
    ##  3 AESCULUS            23.7             0         64             25   
    ##  4 AILANTHUS           15.9             3         21.5           19.5 
    ##  5 ALBIZIA              6               6          6              6   
    ##  6 ALNUS               17.5             0         40             17.5 
    ##  7 AMELANCHIER          3.21            0         20              3   
    ##  8 ARALIA               6.81            3         12              6.12
    ##  9 ARAUCARIA           11.4             3         32              8.5 
    ## 10 ARBUTUS             18.4             6         33             17.5 
    ## # … with 87 more rows, and 1 more variable: sd_diameter <dbl>
…
Be sure to explain your reasoning for this task. Show us the “before”
and “after”.

<!--------------------------- Start your work below --------------------------->

``` r
untidy_vancouver_trees <- vancouver_trees %>%
  pivot_longer(cols = c(-tree_id, -civic_number, -std_street, -genus_name, -species_name, -cultivar_name, -common_name, -assigned, -root_barrier, -plant_area, -on_street_block, -on_street, -neighbourhood_name, -street_side_name, -curb, -date_planted, -longitude, -latitude), # select all the variable we want to keep
               names_to = "physiological_parameters", #gather the physiological parameter, height and diameter, in one variable
               values_to = "physiological_value")%>%#assigned variable to the value of this physiological data
  select(tree_id, physiological_parameters, physiological_value, everything())
print(untidy_vancouver_trees)
```

    ## # A tibble: 293,222 × 20
    ##    tree_id physiological_pa… physiological_v… civic_number std_street genus_name
    ##      <dbl> <chr>                        <dbl>        <dbl> <chr>      <chr>     
    ##  1  149556 height_range_id                  2          494 W 58TH AV  ULMUS     
    ##  2  149556 diameter                        10          494 W 58TH AV  ULMUS     
    ##  3  149563 height_range_id                  4          450 W 58TH AV  ZELKOVA   
    ##  4  149563 diameter                        10          450 W 58TH AV  ZELKOVA   
    ##  5  149579 height_range_id                  3         4994 WINDSOR ST STYRAX    
    ##  6  149579 diameter                         4         4994 WINDSOR ST STYRAX    
    ##  7  149590 height_range_id                  4          858 E 39TH AV  FRAXINUS  
    ##  8  149590 diameter                        18          858 E 39TH AV  FRAXINUS  
    ##  9  149604 height_range_id                  2         5032 WINDSOR ST ACER      
    ## 10  149604 diameter                         9         5032 WINDSOR ST ACER      
    ## # … with 293,212 more rows, and 14 more variables: species_name <chr>,
    ## #   cultivar_name <chr>, common_name <chr>, assigned <chr>, root_barrier <chr>,
    ## #   plant_area <chr>, on_street_block <dbl>, on_street <chr>,
    ## #   neighbourhood_name <chr>, street_side_name <chr>, curb <chr>,
    ## #   date_planted <date>, longitude <dbl>, latitude <dbl>

Here I untidied the data, by gathering the height and the diameter
together.

``` r
tidy_untidy_vancouver_trees <- untidy_vancouver_trees %>%
  pivot_wider(id_cols = c(-physiological_parameters, -physiological_value), #removing physiological_parameters and data
              names_from = physiological_parameters, #extracting the names from physiological_parameters
              values_from = physiological_value)%>% #assigning values via physiological_data
  select(tree_id, height_range_id,diameter, everything())
print(tidy_untidy_vancouver_trees)
```

    ## # A tibble: 146,611 × 20
    ##    tree_id height_range_id diameter civic_number std_street    genus_name
    ##      <dbl>           <dbl>    <dbl>        <dbl> <chr>         <chr>     
    ##  1  149556               2     10            494 W 58TH AV     ULMUS     
    ##  2  149563               4     10            450 W 58TH AV     ZELKOVA   
    ##  3  149579               3      4           4994 WINDSOR ST    STYRAX    
    ##  4  149590               4     18            858 E 39TH AV     FRAXINUS  
    ##  5  149604               2      9           5032 WINDSOR ST    ACER      
    ##  6  149616               2      5            585 W 61ST AV     PYRUS     
    ##  7  149617               3     15           4909 SHERBROOKE ST ACER      
    ##  8  149618               3     14           4925 SHERBROOKE ST ACER      
    ##  9  149619               2     16           4969 SHERBROOKE ST ACER      
    ## 10  149625               2      7.5          720 E 39TH AV     FRAXINUS  
    ## # … with 146,601 more rows, and 14 more variables: species_name <chr>,
    ## #   cultivar_name <chr>, common_name <chr>, assigned <chr>, root_barrier <chr>,
    ## #   plant_area <chr>, on_street_block <dbl>, on_street <chr>,
    ## #   neighbourhood_name <chr>, street_side_name <chr>, curb <chr>,
    ## #   date_planted <date>, longitude <dbl>, latitude <dbl>
…
